…
```r
simple_split %>%
  pluck("splits", 1)
## <2199/731/2930>
```

## `map` functions


```r
simple_split %>%
  pluck("splits") %>%
  map(rsample::testing)
## [[1]]
## # A tibble: 731 x 81
##    MS_SubClass MS_Zoning Lot_Frontage Lot_Area Street Alley Lot_Shape
##    <fct>       <fct>            <dbl>    <int> <fct>  <fct> <fct>    
##  1 One_Story_… Resident…          141    31770 Pave   No_A… Slightly…
##  2 Two_Story_… Resident…           78     9978 Pave   No_A… Slightly…
##  3 One_Story_… Resident…            0     7980 Pave   No_A… Slightly…
##  4 One_Story_… Resident…            0     6820 Pave   No_A… Slightly…
##  5 One_Story_… Resident…           85    13175 Pave   No_A… Regular  
##  6 One_Story_… Resident…            0    12537 Pave   No_A… Slightly…
##  7 One_Story_… Resident…           70     8400 Pave   No_A… Regular  
##  8 One_Story_… Resident…           70    10500 Pave   No_A… Regular  
##  9 One_Story_… Resident…           94    12883 Pave   No_A… Slightly…
## 10 One_Story_… Resident…           95    12182 Pave   No_A… Regular  
## # … with 721 more rows, and 74 more variables: Land_Contour <fct>,
## #   Utilities <fct>, Lot_Config <fct>, Land_Slope <fct>, Neighborhood <fct>,
## #   Condition_1 <fct>, Condition_2 <fct>, Bldg_Type <fct>, House_Style <fct>,
## #   Overall_Qual <fct>, Overall_Cond <fct>, Year_Built <int>,
## #   Year_Remod_Add <int>, Roof_Style <fct>, Roof_Matl <fct>,
## #   Exterior_1st <fct>, Exterior_2nd <fct>, Mas_Vnr_Type <fct>,
## #   Mas_Vnr_Area <dbl>, Exter_Qual <fct>, Exter_Cond <fct>, Foundation <fct>,
## #   Bsmt_Qual <fct>, Bsmt_Cond <fct>, Bsmt_Exposure <fct>,
## #   BsmtFin_Type_1 <fct>, BsmtFin_SF_1 <dbl>, BsmtFin_Type_2 <fct>,
…
## `unnest`

Expanding a list column


```r
simple_split %>%
  dplyr::mutate(train_set = purrr::map(splits, training)) %>%
  tidyr::unnest(train_set)
## # A tibble: 2,199 x 83
##    splits id    MS_SubClass MS_Zoning Lot_Frontage Lot_Area Street Alley
##    <list> <chr> <fct>       <fct>            <dbl>    <int> <fct>  <fct>
##  1 <spli… trai… One_Story_… Resident…           80    11622 Pave   No_A…
##  2 <spli… trai… One_Story_… Resident…           81    14267 Pave   No_A…
##  3 <spli… trai… One_Story_… Resident…           93    11160 Pave   No_A…
##  4 <spli… trai… Two_Story_… Resident…           74    13830 Pave   No_A…
##  5 <spli… trai… One_Story_… Resident…           41     4920 Pave   No_A…
##  6 <spli… trai… One_Story_… Resident…           43     5005 Pave   No_A…
##  7 <spli… trai… One_Story_… Resident…           39     5389 Pave   No_A…
##  8 <spli… trai… Two_Story_… Resident…           60     7500 Pave   No_A…
##  9 <spli… trai… Two_Story_… Resident…           75    10000 Pave   No_A…
## 10 <spli… trai… Two_Story_… Resident…           63     8402 Pave   No_A…
## # … with 2,189 more rows, and 75 more variables: Lot_Shape <fct>,
## #   Land_Contour <fct>, Utilities <fct>, Lot_Config <fct>, Land_Slope <fct>,
## #   Neighborhood <fct>, Condition_1 <fct>, Condition_2 <fct>, Bldg_Type <fct>,
## #   House_Style <fct>, Overall_Qual <fct>, Overall_Cond <fct>,
## #   Year_Built <int>, Year_Remod_Add <int>, Roof_Style <fct>, Roof_Matl <fct>,
## #   Exterior_1st <fct>, Exterior_2nd <fct>, Mas_Vnr_Type <fct>,
## #   Mas_Vnr_Area <dbl>, Exter_Qual <fct>, Exter_Cond <fct>, Foundation <fct>,
## #   Bsmt_Qual <fct>, Bsmt_Cond <fct>, Bsmt_Exposure <fct>,
## #   BsmtFin_Type_1 <fct>, BsmtFin_SF_1 <dbl>, BsmtFin_Type_2 <fct>,
…
