…
### Prep/bake

- `prep`: trains a dataset
- `bake`: apply a trained model to new data

However, you do not need to do this since the `fit` functions do this for you too


```r
rec %>%
  recipes::prep(training = ames) %>%
  recipes::bake(new_data = ames)
## # A tibble: 2,930 x 81
##    MS_SubClass MS_Zoning Lot_Frontage Lot_Area Street Alley Lot_Shape
##    <fct>       <fct>            <dbl>    <dbl> <fct>  <fct> <fct>    
##  1 One_Story_… Resident…       2.49     2.74   Pave   No_A… Slightly…
##  2 One_Story_… Resident…       0.667    0.187  Pave   No_A… Regular  
##  3 One_Story_… Resident…       0.697    0.523  Pave   No_A… Slightly…
##  4 One_Story_… Resident…       1.06     0.128  Pave   No_A… Regular  
##  5 Two_Story_… Resident…       0.488    0.467  Pave   No_A… Slightly…
##  6 Two_Story_… Resident…       0.608   -0.0216 Pave   No_A… Slightly…
##  7 One_Story_… Resident…      -0.497   -0.663  Pave   No_A… Regular  
##  8 One_Story_… Resident…      -0.437   -0.653  Pave   No_A… Slightly…
##  9 One_Story_… Resident…      -0.557   -0.604  Pave   No_A… Slightly…
## 10 Two_Story_… Resident…       0.0702  -0.336  Pave   No_A… Regular  
## # … with 2,920 more rows, and 74 more variables: Land_Contour <fct>,
## #   Utilities <fct>, Lot_Config <fct>, Land_Slope <fct>, Neighborhood <fct>,
## #   Condition_1 <fct>, Condition_2 <fct>, Bldg_Type <fct>, House_Style <fct>,
## #   Overall_Qual <fct>, Overall_Cond <fct>, Year_Built <dbl>,
## #   Year_Remod_Add <dbl>, Roof_Style <fct>, Roof_Matl <fct>,
## #   Exterior_1st <fct>, Exterior_2nd <fct>, Mas_Vnr_Type <fct>,
## #   Mas_Vnr_Area <dbl>, Exter_Qual <fct>, Exter_Cond <fct>, Foundation <fct>,
## #   Bsmt_Qual <fct>, Bsmt_Cond <fct>, Bsmt_Exposure <fct>,
## #   BsmtFin_Type_1 <fct>, BsmtFin_SF_1 <dbl>, BsmtFin_Type_2 <fct>,
…
